exploration
…
## # A tibble: 9 x 1
##   .                                                           
##   <chr>                                                       
## 1 Autoplayed: user action: Unspecified;                       
## 2 <NA>                                                        
## 3 Autoplayed: user action: None;                              
## 4 Autoplayed: user action: User_Interaction;                  
## 5 Autoplayed: user action: Visibility_Timeout;                
## 6 Has branched playback; Autoplayed: user action: None;       
## 7 View was hidden;                                            
## 8 Has branched playback;                                      
## 9 Has branched playback; Autoplayed: user action: Unspecified;
## 
## $Title
## # A tibble: 13,833 x 1
##    .                                                           
##    <chr>                                                       
##  1 SKY Castle: Season 1: Episode 20                            
##  2 Queen of the South: Season 1: Esta cosa nuestra (Episode 10)
##  3 Queen of the South: Season 1_hook_primary_16x9              
##  4 The Circle: Season 4: A Spicy Start (Episode 1)             
##  5 Season 4 High Context Clip: The Circle                      
##  6 Season 7 Supporting Character Clip: Grace and Frankie       
##  7 Inciting Incident Clip: Blood Sisters: Limited Series       
##  8 SKY Castle: Season 1: Episode 19                            
##  9 SKY Castle: Season 1: Episode 18                            
## 10 SKY Castle: Season 1: Episode 17                            
## #  with 13,823 more rows
## 
## $`Supplemental Video Type`
…
##  2 HOOK             
##  3 TEASER_TRAILER   
##  4 TRAILER          
##  5 RECAP            
##  6 PREVIEW          
##  7 PROMOTIONAL      
##  8 BONUS_VIDEO      
##  9 BUMPER           
## 10 BIG_ROW          
## 11 FEATURETTE       
## 12 DATE_ANNOUNCEMENT
## 13 CHARACTER        
## 
## $`Device Type`
## # A tibble: 62 x 1
##    .                                           
##    <chr>                                       
##  1 LG 2019 LG O18 UHD TV Smart TV              
##  2 Sony Sony Android TV 2015 4K Smart TV       
##  3 Apple iPhone 13 Pro                         
##  4 Apple iPad Pro 11in 2nd Gen (Wi-Fi) iPad    
##  5 Roku Midland Smart TV                       
##  6 Apple TV 4K                                 
##  7 Chrome PC (Cadmium)                         
##  8 Sony Sony CE SONY SimpleTV 2015 Sal Smart TV
##  9 Safari MAC (Cadmium)                        
## 10 Enseo HD3300 CKW MVPD Hotel STB             
## #  with 52 more rows
## 
## $Country
…
